INDEX VERSION 1.129+D:\PT_Barar_Denisa\.metadata\.plugins\org.eclipse.jdt.core
3179953034.index
3964923001.index
21486501.index
2709655776.index
424447496.index
70246269.index
3550930481.index
1583749204.index
699245563.index
1630848587.index
3992513546.index
3608884278.index
12417758.index
1851668056.index
854353447.index
2173726253.index
1593673412.index
4163494320.index
4289041276.index
3618832045.index
